{
  "code": "200",
  "message": null,
  "data": {
    "content": [
      {
        "center": "账户中心",
        "environment": "生产环境",
        "id": 20,
        "version": "msp-prod-3.3.2.gradle",
        "createDate": "2018-11-09 11:32:43",
        "modifyDate": "2018-11-21 16:48:45",
        "state": "U",
        "versions": null,
        "centerCode": "ams",
        "exploitMan": "冯建强",
        "asinfoMan": "杜文伟"
      },
      {
        "center": "账户流量子中心",
        "environment": "生产环境",
        "id": 23,
        "version": "msp-prod-3.2.2.gradle",
        "createDate": "2018-11-09 00:00:00",
        "modifyDate": "2018-11-28 11:28:44",
        "state": "U",
        "versions": null,
        "centerCode": "flow",
        "exploitMan": "冯建强",
        "asinfoMan": "杜文伟"
      },
      {
        "center": "认证子中心",
        "environment": "生产环境",
        "id": 25,
        "version": "msp-prod-3.1.5.gradle",
        "createDate": "2018-11-09 11:32:43",
        "modifyDate": null,
        "state": "U",
        "versions": null,
        "centerCode": "aut",
        "exploitMan": null,
        "asinfoMan": "王超"
      },
      {
        "center": "客户中心",
        "environment": "开发环境",
        "id": 29,
        "version": "msp-test-3.3.1.gradle",
        "createDate": "2018-11-09 11:32:43",
        "modifyDate": null,
        "state": "U",
        "versions": null,
        "centerCode": "cust",
        "exploitMan": "冯跃喜",
        "asinfoMan": "姚峰"
      },
      {
        "center": "渠道中心",
        "environment": "测试环境",
        "id": 30,
        "version": "msp-test-3.1.5.1.gradle",
        "createDate": "2018-11-09 11:32:43",
        "modifyDate": null,
        "state": "U",
        "versions": null,
        "centerCode": "chnl",
        "exploitMan": "谢贤娟",
        "asinfoMan": "陆敏"
      },
      {
        "center": "计费中心",
        "environment": "准发布环境",
        "id": 33,
        "version": "msp-prod-3.2.3.gradle",
        "createDate": "2018-11-09 11:32:43",
        "modifyDate": "2018-11-16 15:49:35",
        "state": "U",
        "versions": null,
        "centerCode": "billing",
        "exploitMan": "喻金权",
        "asinfoMan": null
      },
      {
        "center": "客户政企子中心",
        "environment": "开发环境",
        "id": 35,
        "version": "msp-test-3.1.5.gradle",
        "createDate": "2018-11-09 11:32:43",
        "modifyDate": null,
        "state": "U",
        "versions": null,
        "centerCode": "cust-esop",
        "exploitMan": "冯跃喜",
        "asinfoMan": "姚峰"
      },
      {
        "center": "客户中心",
        "environment": "测试环境",
        "id": 38,
        "version": "msp-test-3.3.2.gradle",
        "createDate": "2018-11-09 11:32:43",
        "modifyDate": null,
        "state": "U",
        "versions": null,
        "centerCode": "cust",
        "exploitMan": "冯跃喜",
        "asinfoMan": "姚峰"
      },
      {
        "center": "到期子中心",
        "environment": "开发环境",
        "id": 44,
        "version": "msp-test-3.1.5.1.gradle",
        "createDate": "2018-11-09 11:32:44",
        "modifyDate": null,
        "state": "U",
        "versions": null,
        "centerCode": "expire",
        "exploitMan": "喻金权",
        "asinfoMan": "张振海"
      },
      {
        "center": "政企业务中心-exe",
        "environment": "开发环境",
        "id": 41,
        "version": "msp-test-3.1.5.gradle",
        "createDate": "2018-11-09 11:32:44",
        "modifyDate": "2018-11-09 17:43:26",
        "state": "U",
        "versions": null,
        "centerCode": "esop",
        "exploitMan": "叶勇",
        "asinfoMan": "吴啸天"
      }
    ],
    "last": false,
    "numberOfElements": 10,
    "size": 10,
    "number": 0,
    "totalPages": 25,
    "totalElements": 241,
    "first": true
  }
}
